…
#Untidying Beyoncé
tidyingbey%>%pivot_longer(c("danceability","energy","valence"),names_to="audio features",values_to="value")->pivotedbey
pivotedbey

## # A tibble: 243 x 3
##    track                                  `audio features`  value
##    <fct>                                  <chr>             <dbl>
##  1 Pray You Catch Me                      danceability     0.25  
##  2 Pray You Catch Me                      energy           0.215 
##  3 Pray You Catch Me                      valence          0.0746
##  4 Hold Up                                danceability     0.524 
##  5 Hold Up                                energy           0.397 
##  6 Hold Up                                valence          0.552 
##  7 Don't Hurt Yourself (feat. Jack White) danceability     0.614 
##  8 Don't Hurt Yourself (feat. Jack White) energy           0.686 
##  9 Don't Hurt Yourself (feat. Jack White) valence          0.645 
## 10 Sorry                                  danceability     0.775 
## # … with 233 more rows

#Tidying again
pivotedbey%>%pivot_wider(names_from="audio features",values_from="value")->widetidybey
widetidybey

## # A tibble: 81 x 4
##    track                                  danceability energy valence
##    <fct>                                         <dbl>  <dbl>   <dbl>
##  1 Pray You Catch Me                             0.25   0.215  0.0746
##  2 Hold Up                                       0.524  0.397  0.552 
##  3 Don't Hurt Yourself (feat. Jack White)        0.614  0.686  0.645 
##  4 Sorry                                         0.775  0.598  0.356 
##  5 6 Inch (feat. The Weeknd)                     0.516  0.637  0.324 
##  6 Daddy Lessons                                 0.643  0.503  0.598 
##  7 Love Drought                                  0.455  0.535  0.216 
##  8 Sandcastles                                   0.33   0.357  0.101 
##  9 Forward (feat. James Blake)                   0.387  0.133  0.0498
## 10 Freedom (feat. Kendrick Lamar)                0.437  0.803  0.406 
## # … with 71 more rows
…
#Untidying Solange
tidyingsol%>%pivot_longer(c("danceability","energy","valence"),names_to="audio features",values_to="value")->pivotedsol
pivotedsol

## # A tibble: 195 x 3
##    track                  `audio features` value
##    <fct>                  <chr>            <dbl>
##  1 Things I Imagined      danceability     0.391
##  2 Things I Imagined      energy           0.192
##  3 Things I Imagined      valence          0.039
##  4 S McGregor (interlude) danceability     0.422
##  5 S McGregor (interlude) energy           0.321
##  6 S McGregor (interlude) valence          0.361
##  7 Down With the Clique   danceability     0.664
##  8 Down With the Clique   energy           0.459
##  9 Down With the Clique   valence          0.356
## 10 Way to the Show        danceability     0.594
## # … with 185 more rows

#Tidying back to normal 
pivotedsol%>%pivot_wider(names_from="audio features",values_from="value")->widetidysol
widetidysol

## # A tibble: 65 x 4
##    track                                 danceability energy valence
##    <fct>                                        <dbl>  <dbl>   <dbl>
##  1 Things I Imagined                            0.391  0.192  0.039 
##  2 S McGregor (interlude)                       0.422  0.321  0.361 
##  3 Down With the Clique                         0.664  0.459  0.356 
##  4 Way to the Show                              0.594  0.71   0.558 
##  5 Can I Hold the Mic (interlude)               0.633  0.169  0.534 
##  6 Stay Flo                                     0.823  0.558  0.674 
##  7 Dreams                                       0.661  0.368  0.211 
##  8 Nothing Without Intention (interlude)        0.678  0.506  0.623 
##  9 Almeda                                       0.827  0.553  0.0631
## 10 Time (is)                                    0.493  0.159  0.38  
## # … with 55 more rows
…
#mutate(), group_by()
##Average Audio Track Feature

###3)
beysol%>%group_by(track)%>%mutate(average=mean((energy+valence+danceability)/3))%>%arrange(desc(average))->avg
avg%>%select(artist,album,track,average)->avg1
avg1

## # A tibble: 146 x 4
## # Groups:   track [146]
##    artist  album           track                                         average
##    <chr>   <chr>           <chr>                                           <dbl>
##  1 Solange Solo Star       Dance with You                                  0.828
##  2 Beyoncé Dangerously In… Work It Out                                     0.798
##  3 Beyoncé 4               Run the World (Girls)                           0.797
##  4 Beyoncé B'Day           Check On It (feat. Bun B & Slim Thug) - feat…   0.788
##  5 Beyoncé Dangerously In… Hip Hop Star (feat. Big Boi & Sleepy Brown)     0.786
##  6 Beyoncé B'Day           Get Me Bodied                                   0.782
##  7 Beyoncé Lemonade        Formation                                       0.778
##  8 Beyoncé B'Day           Get Me Bodied - Extended Mix                    0.776
##  9 Beyoncé 4               Run the World (Girls) - Kaskade Club Remix      0.771
## 10 Beyoncé 4               End of Time                                     0.769
## # … with 136 more rows
…
confmat<-final%>%group_by(valence,danceability)%>%count(cluster)%>%arrange(desc(n))%>%pivot_wider(names_from="cluster",values_from="n",values_fill=list('n'=0))
confmat

## # A tibble: 144 x 4
## # Groups:   valence, danceability [144]
##    valence danceability   `2`   `1`
##      <dbl>        <dbl> <int> <int>
##  1  0.466         0.75      2     0
##  2  0.719         0.696     2     0
##  3  0.0383        0.26      0     1
##  4  0.039         0.391     0     1
##  5  0.0391        0.313     0     1
##  6  0.0498        0.387     0     1
##  7  0.0631        0.827     1     0
##  8  0.0746        0.25      0     1
##  9  0.101         0.33      0     1
## 10  0.102         0.549     0     1
## # … with 134 more rows
…
